LAB_67/LAB_67.vcd
$comment
Copyright (C) 1991-2010 Altera Corporation
Your use of Altera Corporation's design tools, logic functions 
and other software and tools, and its AMPP partner logic 
functions, and any output files from any of the foregoing 
(including device programming or simulation files), and any 
associated documentation or information are expressly subject 
to the terms and conditions of the Altera Program License 
Subscription Agreement, Altera MegaCore Function License 
Agreement, or other applicable license agreement, including, 
without limitation, that your use is for the sole purpose of 
programming logic devices manufactured by Altera and sold by 
Altera or its authorized distributors.  Please refer to the 
applicable agreement for further details.
$end

$date 
  12/20/2018 03:39:27 
$end
$version 
 QUARTUS_VCD_EXPORT 1.0 
$end
$timescale
  1 ps
$end
$scope module LAB_67 $end
$var reg 1 ! clk $end
$var reg 7 " request_address[6:0] $end
$var reg 7 # address_bus[6:0] $end
$var reg 1 $ request $end
$var reg 4 % output_data[0:3] $end
$var reg 4 & output_data_from_cache[0:3] $end
$var reg 1 ' hit $end
$var reg 1 ( enable_write $end
$var reg 1 ) pin_name $end
$var reg 1 * operation0 $end
$var reg 1 + operation1 $end
$var reg 1 , operation2 $end
$var reg 1 - operation3 $end
$var reg 1 . operation4 $end
$var reg 1 / operation5 $end
$var reg 1 0 operation6 $end
$var reg 1 1 operation7 $end
$var reg 1 2 enable_read0 $end
$var reg 1 3 enable_read1 $end
$var reg 1 4 enable_read2 $end
$var reg 1 5 enable_read3 $end
$scope module inst $end
$scope module inst $end
$scope module comp00 $end
$scope module lpm_compare_component $end
$scope module auto_generated $end
$var reg 1 6 aeb_output_dffe0a[0:0] $end
$upscope $end
$upscope $end
$upscope $end
$scope module comp0 $end
$scope module lpm_compare_component $end
$scope module auto_generated $end
$var reg 1 7 aeb_output_dffe0a[0:0] $end
$upscope $end
$upscope $end
$upscope $end
$scope module inst11 $end
$scope module lpm_counter_component $end
$scope module auto_generated $end
$var reg 3 8 safe_q[2:0] $end
$upscope $end
$upscope $end
$upscope $end
$upscope $end
$upscope $end
$upscope $end
$enddefinitions $end
#0
$dumpvars
1!
b0 "
bZ #
1$
bZ %
bZ &
0'
0(
0)
1*
0+
0,
0-
0.
0/
00
01
X2
X3
X4
X5
b0 6
b0 7
b0 8
$end
#5000
0!
X2
X3
X4
X5
#10000
1!
b0 #
b0 &
0*
1+
12
03
04
05
b1 6
b1 7
b1 8
#15000
0!
#20000
1!
b1 #
b0 %
1'
1(
1)
0+
1,
b10 8
#25000
0!
0)
#30000
1!
b10 #
b100 %
bX &
1)
0,
1-
02
13
b11 8
#35000
0!
0)
#40000
1!
0'
1)
0-
1.
b100 8
#45000
0!
0)
#50000
1!
bZ #
bZ %
bZ &
0(
0.
1/
X2
X3
X4
X5
b101 8
#55000
0!
X2
X3
X4
X5
#60000
1!
0/
10
X2
X3
X4
X5
b110 8
#65000
0!
X2
X3
X4
X5
#70000
1!
00
11
X2
X3
X4
X5
b111 8
#75000
0!
X2
X3
X4
X5
#80000
1!
1*
01
X2
X3
X4
X5
b0 8
#85000
0!
X2
X3
X4
X5
#90000
1!
b0 #
b0 &
1'
0*
1+
12
03
04
05
b1 8
#95000
0!
#100000
1!
b1 #
bX &
0+
1,
b10 8
#105000
0!
#110000
1!
b10 #
0,
1-
02
13
b11 8
#115000
0!
#120000
1!
0'
0-
1.
b100 8
#125000
0!
#130000
1!
bZ #
bZ &
0.
1/
X2
X3
X4
X5
b101 8
#135000
0!
X2
X3
X4
X5
#140000
1!
0/
10
X2
X3
X4
X5
b110 8
#145000
0!
X2
X3
X4
X5
#150000
1!
00
11
X2
X3
X4
X5
b111 8
#155000
0!
X2
X3
X4
X5
#160000
1!
0$
1*
01
X2
X3
X4
X5
b0 8
#165000
0!
X2
X3
X4
X5
#170000
1!
b0 #
b0 &
1'
0*
1+
12
03
04
05
b1 8
#175000
0!
#180000
1!
b1 #
bX &
0+
1,
b10 8
#185000
0!
#190000
1!
b10 #
0,
1-
02
13
b11 8
#195000
0!
#200000
1!
0'
0-
1.
b100 8
#205000
0!
#210000
1!
bZ #
bZ &
0.
1/
X2
X3
X4
X5
b101 8
#215000
0!
X2
X3
X4
X5
#220000
1!
0/
10
X2
X3
X4
X5
b110 8
#225000
0!
X2
X3
X4
X5
#230000
1!
00
11
X2
X3
X4
X5
b111 8
#235000
0!
X2
X3
X4
X5
#240000
1!
b1111000 "
1*
01
X2
X3
X4
X5
b0 8
#245000
0!
X2
X3
X4
X5
#250000
1!
b1111000 #
bX &
0*
1+
12
03
04
05
b0 6
b0 7
b1 8
#255000
0!
#260000
1!
b1111001 #
b100 %
1(
1)
0+
1,
b10 8
#265000
0!
0)
#270000
1!
b1111010 #
1)
0,
1-
02
13
b11 8
#275000
0!
0)
#280000
1!
1)
0-
1.
b100 8
#285000
0!
0)
#290000
1!
bZ #
bZ %
bZ &
0(
0.
1/
X2
X3
X4
X5
b101 8
#295000
0!
X2
X3
X4
X5
#300000
1!
0/
10
X2
X3
X4
X5
b110 8
#305000
0!
X2
X3
X4
X5
#310000
1!
00
11
X2
X3
X4
X5
b111 8
#315000
0!
X2
X3
X4
X5
#320000
1!
b0 "
1*
01
X2
X3
X4
X5
b0 8
#325000
0!
X2
X3
X4
X5
#330000
1!
b0 #
bX &
0*
1+
12
03
04
05
b1 8
#335000
0!
#340000
1!
b1 #
b100 %
1(
1)
0+
1,
b10 8
#345000
0!
0)
#350000
1!
b10 #
1)
0,
1-
02
13
b11 8
#355000
0!
0)
#360000
1!
1)
0-
1.
b100 8
#365000
0!
0)
#370000
1!
bZ #
bZ %
bZ &
0(
0.
1/
X2
X3
X4
X5
b101 8
#375000
0!
X2
X3
X4
X5
#380000
1!
0/
10
X2
X3
X4
X5
b110 8
#385000
0!
X2
X3
X4
X5
#390000
1!
00
11
X2
X3
X4
X5
b111 8
#395000
0!
X2
X3
X4
X5
#400000
1!
1*
01
X2
X3
X4
X5
b0 8
#405000
0!
X2
X3
X4
X5
#410000
1!
b0 #
bX &
1'
0*
1+
12
03
04
05
b1 6
b1 7
b1 8
#415000
0!
#420000
1!
b1 #
0+
1,
b10 8
#425000
0!
#430000
1!
b10 #
0,
1-
02
13
b11 8
#435000
0!
#440000
1!
0'
0-
1.
b100 8
#445000
0!
#450000
1!
bZ #
bZ &
0.
1/
X2
X3
X4
X5
b101 8
#455000
0!
X2
X3
X4
X5
#460000
1!
0/
10
X2
X3
X4
X5
b110 8
#465000
0!
X2
X3
X4
X5
#470000
1!
00
11
X2
X3
X4
X5
b111 8
#475000
0!
X2
X3
X4
X5
#480000
1!
1*
01
X2
X3
X4
X5
b0 8
#485000
0!
X2
X3
X4
X5
#490000
1!
b0 #
bX &
1'
0*
1+
12
03
04
05
b1 8
#495000
0!
#500000
1!
b1 #
0+
1,
b10 8
#505000
0!
#510000
1!
b10 #
0,
1-
02
13
b11 8
#515000
0!
#520000
1!
0'
0-
1.
b100 8
#525000
0!
#530000
1!
bZ #
bZ &
0.
1/
X2
X3
X4
X5
b101 8
#535000
0!
X2
X3
X4
X5
#540000
1!
0/
10
X2
X3
X4
X5
b110 8
#545000
0!
X2
X3
X4
X5
#550000
1!
00
11
X2
X3
X4
X5
b111 8
#555000
0!
X2
X3
X4
X5
#560000
1!
1*
01
X2
X3
X4
X5
b0 8
#565000
0!
X2
X3
X4
X5
#570000
1!
b0 #
bX &
1'
0*
1+
12
03
04
05
b1 8
#575000
0!
#580000
1!
b1 #
0+
1,
b10 8
#585000
0!
#590000
1!
b10 #
0,
1-
02
13
b11 8
#595000
0!
#600000
1!
0'
0-
1.
b100 8
#605000
0!
#610000
1!
bZ #
bZ &
0.
1/
X2
X3
X4
X5
b101 8
#615000
0!
X2
X3
X4
X5
#620000
1!
0/
10
X2
X3
X4
X5
b110 8
#625000
0!
X2
X3
X4
X5
#630000
1!
00
11
X2
X3
X4
X5
b111 8
#635000
0!
X2
X3
X4
X5
#640000
1!
1*
01
X2
X3
X4
X5
b0 8
#645000
0!
X2
X3
X4
X5
#650000
1!
b0 #
bX &
1'
0*
1+
12
03
04
05
b1 8
#655000
0!
#660000
1!
b1 #
0+
1,
b10 8
#665000
0!
#670000
1!
b10 #
0,
1-
02
13
b11 8
#675000
0!
#680000
1!
0'
0-
1.
b100 8
#685000
0!
#690000
1!
bZ #
bZ &
0.
1/
X2
X3
X4
X5
b101 8
#695000
0!
X2
X3
X4
X5
#700000
1!
0/
10
X2
X3
X4
X5
b110 8
#705000
0!
X2
X3
X4
X5
#710000
1!
00
11
X2
X3
X4
X5
b111 8
#715000
0!
X2
X3
X4
X5
#720000
1!
1*
01
X2
X3
X4
X5
b0 8
#725000
0!
X2
X3
X4
X5
#730000
1!
b0 #
bX &
1'
0*
1+
12
03
04
05
b1 8
#735000
0!
#740000
1!
b1 #
0+
1,
b10 8
#745000
0!
#750000
1!
b10 #
0,
1-
02
13
b11 8
#755000
0!
#760000
1!
0'
0-
1.
b100 8
#765000
0!
#770000
1!
bZ #
bZ &
0.
1/
X2
X3
X4
X5
b101 8
#775000
0!
X2
X3
X4
X5
#780000
1!
0/
10
X2
X3
X4
X5
b110 8
#785000
0!
X2
X3
X4
X5
#790000
1!
00
11
X2
X3
X4
X5
b111 8
#795000
0!
X2
X3
X4
X5
#800000
1!
1*
01
X2
X3
X4
X5
b0 8
#805000
0!
X2
X3
X4
X5
#810000
1!
b0 #
bX &
1'
0*
1+
12
03
04
05
b1 8
#815000
0!
#820000
1!
b1 #
0+
1,
b10 8
#825000
0!
#830000
1!
b10 #
0,
1-
02
13
b11 8
#835000
0!
#840000
1!
0'
0-
1.
b100 8
#845000
0!
#850000
1!
bZ #
bZ &
0.
1/
X2
X3
X4
X5
b101 8
#855000
0!
X2
X3
X4
X5
#860000
1!
0/
10
X2
X3
X4
X5
b110 8
#865000
0!
X2
X3
X4
X5
#870000
1!
00
11
X2
X3
X4
X5
b111 8
#875000
0!
X2
X3
X4
X5
#880000
1!
1*
01
X2
X3
X4
X5
b0 8
#885000
0!
X2
X3
X4
X5
#890000
1!
b0 #
bX &
1'
0*
1+
12
03
04
05
b1 8
#895000
0!
#900000
1!
b1 #
0+
1,
b10 8
#905000
0!
#910000
1!
b10 #
0,
1-
02
13
b11 8
#915000
0!
#920000
1!
0'
0-
1.
b100 8
#925000
0!
#930000
1!
bZ #
bZ &
0.
1/
X2
X3
X4
X5
b101 8
#935000
0!
X2
X3
X4
X5
#940000
1!
0/
10
X2
X3
X4
X5
b110 8
#945000
0!
X2
X3
X4
X5
#950000
1!
00
11
X2
X3
X4
X5
b111 8
#955000
0!
X2
X3
X4
X5
#960000
1!
1*
01
X2
X3
X4
X5
b0 8
#965000
0!
X2
X3
X4
X5
#970000
1!
b0 #
bX &
1'
0*
1+
12
03
04
05
b1 8
#975000
0!
#980000
1!
b1 #
0+
1,
b10 8
#985000
0!
#990000
1!
b10 #
0,
1-
02
13
b11 8
